20

40
40
41
-2
39

40
40
40
-1
-2
-1

5
16
11
-1
-1
5
17
5
-1
-1

20
6
10
6
11
-5
-2
18
-2
5

14
-1
11
14
7
13
-3
-3
5
-2
13
19

12
-1
13
8
5
-1
20
8
7
-4
11
11
5
-4
-3

12
11
-1
18
-1
6
-1
-1
12
17
8
11

17
17
-2
20
-1
-1
9
20
-1
-1

12
-1
5
12
16
17
-3
-3
-1
-1
14

20
-1
17
16
-1
15
-2
-1
15
6
-2
-1
19
7

20
6
11
-3
16
-1
13
5
9
17

17
-1
10
-1
10
17
12
16
9
18
11

20
5
9
-1
-1
11
19
-3
8
-3

13
-1
8
-1
14
5
-1
9
6
20

13
18
13
13
-4
10
-2
19
13
18
-2

5
-1
20
-1
10
-1
20
-1
10
-1
16

9
-1
18
-1
6
19
10
16
-1
-3

15
13
19
18
-3
-2
-2
-1
12
19
-1

10
13
6
-3
10
-1
13
6
-2
-2

6
7
8
8
-4
5
-4
-2
-1
6
6
-1
